{
    "UserName": "v-yuph",
    "ClusterId": "gcr",
    "VcId": "resrchvc",

    "JobName": "tempv2",
    "ConfigFile": "/philly/gcr/resrchvc/v-yuph/mnist_demo/mnist_demo.py",
    "ExtraParams": "--epochs 3",

    "MinGPUs": 1,
    "Queue": "",
    "IsDebug": true,

    "NumOfContainers": "1",
    "OneProcessPerContainer": true,
    "DynamicContainerSize": false,

    "PrevModelPath": "/philly/gcr/resrchvc/v-yuph",
    "OutputRoot": {
    "Path": "/philly/gcr/resrchvc/v-yuph",
    "Name": "outputDir"
    },
    "Inputs": [{
            "Path": "/philly/gcr/resrchvc/v-yuph",
            "Name": "dataDir"
        }
    ],

    "resources":{
        "workers": {
            "type": "skuResource",
            "commandLine": "ls /philly/gcr/resrchvc",
            "containerArgs": {
                "shmSize": "16G"
            }
        }
    },

    "Registry": "phillyregistry.azurecr.io",
    "Repository": "philly/jobs/test/pytorch110py37",
    "Tag": "pytorch110-py37",


    "ResourceTags": {},
    "Outputs": [],
    "IsPerfTrace": false,
    "IsGDBWrapped": false,
    "IsCrossRack": false,
    "RackId": "anyConnected",
    "BuildId": 0,
    "SubmitCode": "p",
    "IsMemCheck": false


}
